Advanced Biological Data Analysis
…
Extra things to think about: Could there be non-linear relationships?, Could there be interaction effects?, Could some predictors be correlated?, Could errors be non-constant or clustered?

Warning  

Once you’ve simulated a scenario you’re happy with (individually) paste your code and assumptions into StatChat.

From numbers to plots

Below is some R output showing data summaries and linear model summary output. In your groups, read through and interpret the output then, on the whiteboards sketch the model fit (including uncertainty), for each case.

CautionFrom numbers to plots - Code and Output

data

# A tibble: 30 × 21
   film   category `worldwide gross ($m)` `% budget recovered` `critics % score`
   <chr>  <chr>                     <dbl> <chr>                <chr>            
 1 Ant-M… Ant-Man                     518 398%                 83%              
 2 Ant-M… Ant-Man                     623 479%                 87%              
 3 Aveng… Avengers                   1395 382%                 76%              
 4 Aveng… Avengers                   2797 699%                 94%              
 5 Aveng… Avengers                   2048 683%                 85%              
 6 Black… Black P…                   1336 668%                 96%              
 7 Black… Black P…                    855 342%                 84%              
 8 Black… Unique                      379 190%                 79%              
 9 Capta… Captain…                    370 264%                 79%              
10 Capta… Captain…                   1151 460%                 90%              
# ℹ 20 more rows
# ℹ 16 more variables: `audience % score` <chr>,
#   `audience vs critics % deviance` <chr>, budget <dbl>,
#   `domestic gross ($m)` <dbl>, `international gross ($m)` <dbl>,
#   `opening weekend ($m)` <dbl>, `second weekend ($m)` <dbl>,
#   `1st vs 2nd weekend drop off` <chr>, `% gross from opening weekend` <dbl>,
#   `% gross from domestic` <chr>, `% gross from international` <chr>, …
…
