today - Advanced Biological Data Analysis
…
Activity solutions

Suggested R code solutions

This section will be update with my suggested solutions to the class wide activities after their conclusion. I strongly recommend that you review these outside of class if only to familiarise yourself with a different approach.

Suggested solution to Section 2.2

require(tidyverse)
## read in data
data <- readr::read_csv("https://raw.githubusercontent.com/STATS-UOA/databunker/master/data/BMI.csv")
data

# A tibble: 1,786 × 3
     bmi steps gender
   <dbl> <dbl> <chr> 
 1  20   10413 male  
 2  21.3 13944 female
 3  17.2 12670 female
 4  17.5  4879 male  
 5  29    4587 female
 6  27.6  8883 female
 7  30.1  8155 male  
 8  26.2  2767 female
 9  31.2  6335 male  
10  26    7755 female
# ℹ 1,776 more rows
…
